…
    ## Warning in mask$eval_all_mutate(quo): NAs introduced by coercion

``` r
amyloid
```

    ## # A tibble: 2,435 × 3
    ##       id years_since_diagnosed amyloid_ratio
    ##    <dbl> <chr>                         <dbl>
    ##  1     1 0                             0.111
    ##  2     1 2                            NA    
    ##  3     1 4                             0.109
    ##  4     1 6                             0.105
    ##  5     1 8                             0.107
    ##  6     2 0                             0.107
    ##  7     2 2                             0.109
    ##  8     2 4                             0.109
    ##  9     2 6                             0.106
    ## 10     2 8                             0.107
    ## # … with 2,425 more rows
…
